AS.600.121A-2.0
BU.600.574B-2.5
ED.600.096C+2.0
EN.600.238D+1.0
ME.600.314F-0.0
AS.100.121A-2.0
BU.200.592A+2.0
ED.300.057A-2.0
ME.400.295A+1.0
AS.532.583D+3.0
BU.583.295S/3.5
ED.372.482U/4.0
EN.283.183I/4.5
